Lab7/simulation/qsim/Hazard.msim.vcd
$comment
	File created using the following command:
		vcd file Hazard.msim.vcd -direction
$end
$date
	Thu Mar 24 20:39:35 2022
$end
$version
	ModelSim Version 10.5b
$end
$timescale
	1ps
$end

$scope module hazard2_vhd_vec_tst $end
$var wire 1 ! A $end
$var wire 1 " B $end
$var wire 1 # C $end
$var wire 1 $ D $end
$var wire 1 % F $end

$scope module i1 $end
$var wire 1 & gnd $end
$var wire 1 ' vcc $end
$var wire 1 ( unknown $end
$var wire 1 ) devoe $end
$var wire 1 * devclrn $end
$var wire 1 + devpor $end
$var wire 1 , ww_devoe $end
$var wire 1 - ww_devclrn $end
$var wire 1 . ww_devpor $end
$var wire 1 / ww_A $end
$var wire 1 0 ww_B $end
$var wire 1 1 ww_C $end
$var wire 1 2 ww_D $end
$var wire 1 3 ww_F $end
$var wire 1 4 \~QUARTUS_CREATED_GND~I_combout\ $end
$var wire 1 5 \C~input_o\ $end
$var wire 1 6 \A~input_o\ $end
$var wire 1 7 \B~input_o\ $end
$var wire 1 8 \D~input_o\ $end
$var wire 1 9 \g18|z~0_combout\ $end
$var wire 1 : \ALT_INV_D~input_o\ $end
$var wire 1 ; \ALT_INV_C~input_o\ $end
$var wire 1 < \ALT_INV_B~input_o\ $end
$var wire 1 = \ALT_INV_A~input_o\ $end
$var wire 1 > \g18|ALT_INV_z~0_combout\ $end
$upscope $end
$upscope $end
$enddefinitions $end
#0
$dumpvars
0!
0"
0#
0$
1%
0&
1'
x(
1)
1*
1+
1,
1-
1.
0/
00
01
02
13
x4
05
06
07
08
09
1:
1;
1<
1=
1>
$end
#40000
1$
12
18
0:
#80000
0$
1#
02
11
15
08
1:
0;
#120000
1$
12
18
0:
19
0>
03
0%
#160000
0$
0#
1"
02
01
10
17
05
08
1:
1;
0<
09
1>
13
1%
#200000
1$
12
18
0:
#240000
0$
1#
02
11
15
08
1:
0;
#280000
1$
12
18
0:
#320000
0$
0#
0"
1!
02
01
00
1/
16
07
05
08
1:
1;
1<
0=
#360000
1$
12
18
0:
19
0>
03
0%
#400000
0$
1#
02
11
15
08
1:
0;
09
1>
13
1%
#440000
1$
12
18
0:
19
0>
03
0%
#480000
0$
0#
1"
02
01
10
17
05
08
1:
1;
0<
#520000
1$
12
18
0:
#560000
0$
1#
02
11
15
08
1:
0;
09
1>
13
1%
#600000
1$
12
18
0:
#640000
0$
0#
0"
0!
02
01
00
0/
06
07
05
08
1:
1;
1<
1=
