Lab6/simulation/qsim/digitalClock.msim.vcd
$comment
	File created using the following command:
		vcd file digitalClock.msim.vcd -direction
$end
$date
	Wed Mar 16 15:01:37 2022
$end
$version
	ModelSim Version 10.5b
$end
$timescale
	1ps
$end

$scope module sevensegment_vhd_vec_tst $end
$var wire 1 ! hexOutput [6] $end
$var wire 1 " hexOutput [5] $end
$var wire 1 # hexOutput [4] $end
$var wire 1 $ hexOutput [3] $end
$var wire 1 % hexOutput [2] $end
$var wire 1 & hexOutput [1] $end
$var wire 1 ' hexOutput [0] $end
$var wire 1 ( input [3] $end
$var wire 1 ) input [2] $end
$var wire 1 * input [1] $end
$var wire 1 + input [0] $end

$scope module i1 $end
$var wire 1 , gnd $end
$var wire 1 - vcc $end
$var wire 1 . unknown $end
$var wire 1 / devoe $end
$var wire 1 0 devclrn $end
$var wire 1 1 devpor $end
$var wire 1 2 ww_devoe $end
$var wire 1 3 ww_devclrn $end
$var wire 1 4 ww_devpor $end
$var wire 1 5 ww_input [3] $end
$var wire 1 6 ww_input [2] $end
$var wire 1 7 ww_input [1] $end
$var wire 1 8 ww_input [0] $end
$var wire 1 9 ww_hexOutput [6] $end
$var wire 1 : ww_hexOutput [5] $end
$var wire 1 ; ww_hexOutput [4] $end
$var wire 1 < ww_hexOutput [3] $end
$var wire 1 = ww_hexOutput [2] $end
$var wire 1 > ww_hexOutput [1] $end
$var wire 1 ? ww_hexOutput [0] $end
$var wire 1 @ \~QUARTUS_CREATED_GND~I_combout\ $end
$var wire 1 A \input[1]~input_o\ $end
$var wire 1 B \input[0]~input_o\ $end
$var wire 1 C \input[3]~input_o\ $end
$var wire 1 D \input[2]~input_o\ $end
$var wire 1 E \Mux6~0_combout\ $end
$var wire 1 F \Mux5~0_combout\ $end
$var wire 1 G \Mux4~0_combout\ $end
$var wire 1 H \Mux3~0_combout\ $end
$var wire 1 I \Mux2~0_combout\ $end
$var wire 1 J \Mux1~0_combout\ $end
$var wire 1 K \Mux0~0_combout\ $end
$var wire 1 L \ALT_INV_input[3]~input_o\ $end
$var wire 1 M \ALT_INV_input[2]~input_o\ $end
$var wire 1 N \ALT_INV_input[1]~input_o\ $end
$var wire 1 O \ALT_INV_input[0]~input_o\ $end
$var wire 1 P \ALT_INV_Mux0~0_combout\ $end
$upscope $end
$upscope $end
$enddefinitions $end
#0
$dumpvars
0,
1-
x.
1/
10
11
12
13
14
x@
0A
0B
0C
0D
0E
0F
0G
0H
0I
0J
0K
1L
1M
1N
1O
1P
0(
0)
0*
0+
05
06
07
08
19
0:
0;
0<
0=
0>
0?
1!
0"
0#
0$
0%
0&
0'
$end
#20000
1+
18
1B
0O
1E
1H
1I
1J
1:
1;
1<
1?
1'
1$
1#
1"
#140000
1*
17
1A
0N
0E
0H
1K
0P
0<
0?
09
0'
0$
0!
#260000
1)
16
1D
0M
1H
0K
1P
1<
19
1$
1!
#390000
0*
07
0A
1N
1F
0H
0J
1K
0P
0:
0<
1>
09
1&
0$
0"
0!
#500000
1*
0)
0+
08
17
06
0D
1A
0B
1O
0N
1M
0F
1G
0I
1J
1:
0;
1=
0>
0&
1%
0#
1"
#590000
1)
1+
1(
18
16
15
1C
1D
1B
0O
0M
0L
1E
1F
1H
1I
0K
1P
1;
1<
1>
1?
19
1'
1&
1$
1#
1!
#710000
0)
0+
0(
0*
08
07
06
05
0C
0D
0A
0B
1O
1N
1M
1L
0E
0F
0G
0H
0I
0J
0:
0;
0<
0=
0>
0?
0'
0&
0%
0$
0#
0"
